^P:\ZZ2\SIMUL\TP1\CONSOLEAPPLICATION1\DEBUG\.NETFRAMEWORK,VERSION=V4.5.2.ASSEMBLYATTRIBUTES.OBJ|P:\ZZ2\SIMUL\TP1\CONSOLEAPPLICATION1\DEBUG\APP.RES|P:\ZZ2\SIMUL\TP1\CONSOLEAPPLICATION1\DEBUG\ASSEMBLYINFO.OBJ|P:\ZZ2\SIMUL\TP1\CONSOLEAPPLICATION1\DEBUG\CONSOLEAPPLICATION1.OBJ|P:\ZZ2\SIMUL\TP1\CONSOLEAPPLICATION1\DEBUG\FORM_MAIN.OBJ|P:\ZZ2\SIMUL\TP1\CONSOLEAPPLICATION1\DEBUG\SIMUL.OBJ|P:\ZZ2\SIMUL\TP1\CONSOLEAPPLICATION1\DEBUG\STDAFX.OBJ
P:\ZZ2\SIMUL\TP1\CONSOLEAPPLICATION1\DEBUG\APP.RES
P:\ZZ2\SIMUL\TP1\CONSOLEAPPLICATION1\DEBUG\ASSEMBLYINFO.OBJ
P:\ZZ2\SIMUL\TP1\CONSOLEAPPLICATION1\DEBUG\CONSOLEAPPLICATION1.OBJ
P:\ZZ2\SIMUL\TP1\CONSOLEAPPLICATION1\DEBUG\FORM_MAIN.OBJ
P:\ZZ2\SIMUL\TP1\CONSOLEAPPLICATION1\DEBUG\SIMUL.OBJ
P:\ZZ2\SIMUL\TP1\CONSOLEAPPLICATION1\DEBUG\STDAFX.OBJ
P:\ZZ2\SIMUL\TP1\CONSOLEAPPLICATION1\DEBUG\.NETFRAMEWORK,VERSION=V4.5.2.ASSEMBLYATTRIBUTES.OBJ
C:\WINDOWS\GLOBALIZATION\SORTING\SORTDEFAULT.NLS
C:\PROGRAM FILES (X86)\MICROSOFT VISUAL STUDIO\2019\COMMUNITY\VC\TOOLS\MSVC\14.29.30133\BIN\HOSTX86\X86\1036\LINKUI.DLL
C:\WINDOWS\SYSTEM32\TZRES.DLL
C:\WINDOWS\MICROSOFT.NET\FRAMEWORK\V4.0.30319\CLR.DLL
C:\PROGRAM FILES (X86)\MICROSOFT VISUAL STUDIO\2019\COMMUNITY\VC\TOOLS\MSVC\14.29.30133\BIN\HOSTX86\X86\LINK.EXE.CONFIG
C:\PROGRAM FILES (X86)\MICROSOFT VISUAL STUDIO\2019\COMMUNITY\VC\TOOLS\MSVC\14.29.30133\LIB\X86\MSVCRTD.LIB
C:\PROGRAM FILES (X86)\MICROSOFT VISUAL STUDIO\2019\COMMUNITY\VC\TOOLS\MSVC\14.29.30133\LIB\X86\OLDNAMES.LIB
C:\PROGRAM FILES (X86)\MICROSOFT VISUAL STUDIO\2019\COMMUNITY\VC\TOOLS\MSVC\14.29.30133\LIB\X86\MSVCMRTD.LIB
C:\PROGRAM FILES (X86)\WINDOWS KITS\NETFXSDK\4.8\LIB\UM\X86\MSCOREE.LIB
C:\PROGRAM FILES (X86)\MICROSOFT VISUAL STUDIO\2019\COMMUNITY\VC\TOOLS\MSVC\14.29.30133\LIB\X86\MSVCPRTD.LIB
C:\PROGRAM FILES (X86)\WINDOWS KITS\10\LIB\10.0.19041.0\UM\X86\UUID.LIB
C:\PROGRAM FILES (X86)\MICROSOFT VISUAL STUDIO\2019\COMMUNITY\VC\TOOLS\MSVC\14.29.30133\LIB\X86\COMSUPP.LIB
C:\PROGRAM FILES (X86)\WINDOWS KITS\10\LIB\10.0.19041.0\UM\X86\OLEAUT32.LIB
C:\PROGRAM FILES (X86)\WINDOWS KITS\10\LIB\10.0.19041.0\UM\X86\KERNEL32.LIB
C:\PROGRAM FILES (X86)\WINDOWS KITS\10\LIB\10.0.19041.0\UCRT\X86\UCRTD.LIB
C:\PROGRAM FILES (X86)\MICROSOFT VISUAL STUDIO\2019\COMMUNITY\VC\TOOLS\MSVC\14.29.30133\LIB\X86\VCRUNTIMED.LIB
C:\PROGRAM FILES (X86)\MICROSOFT VISUAL STUDIO\2019\COMMUNITY\VC\TOOLS\MSVC\14.29.30133\BIN\HOSTX86\X86\CVTRES.EXE
P:\ZZ2\SIMUL\TP1\CONSOLEAPPLICATION1\DEBUG\CONSOLEAPPLICATION1.FORM_MAIN.RESOURCES
^P:\ZZ2\SIMULATION\TP1\CONSOLEAPPLICATION1\DEBUG\.NETFRAMEWORK,VERSION=V4.5.2.ASSEMBLYATTRIBUTES.OBJ|P:\ZZ2\SIMULATION\TP1\CONSOLEAPPLICATION1\DEBUG\APP.RES|P:\ZZ2\SIMULATION\TP1\CONSOLEAPPLICATION1\DEBUG\ASSEMBLYINFO.OBJ|P:\ZZ2\SIMULATION\TP1\CONSOLEAPPLICATION1\DEBUG\CONSOLEAPPLICATION1.OBJ|P:\ZZ2\SIMULATION\TP1\CONSOLEAPPLICATION1\DEBUG\FORM_MAIN.OBJ|P:\ZZ2\SIMULATION\TP1\CONSOLEAPPLICATION1\DEBUG\SIMUL.OBJ|P:\ZZ2\SIMULATION\TP1\CONSOLEAPPLICATION1\DEBUG\STDAFX.OBJ
P:\ZZ2\SIMULATION\TP1\CONSOLEAPPLICATION1\DEBUG\APP.RES
P:\ZZ2\SIMULATION\TP1\CONSOLEAPPLICATION1\DEBUG\ASSEMBLYINFO.OBJ
P:\ZZ2\SIMULATION\TP1\CONSOLEAPPLICATION1\DEBUG\CONSOLEAPPLICATION1.OBJ
P:\ZZ2\SIMULATION\TP1\CONSOLEAPPLICATION1\DEBUG\FORM_MAIN.OBJ
P:\ZZ2\SIMULATION\TP1\CONSOLEAPPLICATION1\DEBUG\SIMUL.OBJ
P:\ZZ2\SIMULATION\TP1\CONSOLEAPPLICATION1\DEBUG\STDAFX.OBJ
P:\ZZ2\SIMULATION\TP1\CONSOLEAPPLICATION1\DEBUG\.NETFRAMEWORK,VERSION=V4.5.2.ASSEMBLYATTRIBUTES.OBJ
C:\WINDOWS\GLOBALIZATION\SORTING\SORTDEFAULT.NLS
C:\PROGRAM FILES (X86)\MICROSOFT VISUAL STUDIO\2019\COMMUNITY\VC\TOOLS\MSVC\14.29.30133\BIN\HOSTX86\X86\1036\LINKUI.DLL
C:\WINDOWS\SYSTEM32\TZRES.DLL
C:\WINDOWS\MICROSOFT.NET\FRAMEWORK\V4.0.30319\CLR.DLL
C:\PROGRAM FILES (X86)\MICROSOFT VISUAL STUDIO\2019\COMMUNITY\VC\TOOLS\MSVC\14.29.30133\BIN\HOSTX86\X86\LINK.EXE.CONFIG
C:\PROGRAM FILES (X86)\MICROSOFT VISUAL STUDIO\2019\COMMUNITY\VC\TOOLS\MSVC\14.29.30133\LIB\X86\MSVCRTD.LIB
C:\PROGRAM FILES (X86)\MICROSOFT VISUAL STUDIO\2019\COMMUNITY\VC\TOOLS\MSVC\14.29.30133\LIB\X86\OLDNAMES.LIB
C:\PROGRAM FILES (X86)\MICROSOFT VISUAL STUDIO\2019\COMMUNITY\VC\TOOLS\MSVC\14.29.30133\LIB\X86\MSVCMRTD.LIB
C:\PROGRAM FILES (X86)\WINDOWS KITS\NETFXSDK\4.8\LIB\UM\X86\MSCOREE.LIB
C:\PROGRAM FILES (X86)\MICROSOFT VISUAL STUDIO\2019\COMMUNITY\VC\TOOLS\MSVC\14.29.30133\LIB\X86\MSVCPRTD.LIB
C:\PROGRAM FILES (X86)\WINDOWS KITS\10\LIB\10.0.22621.0\UM\X86\UUID.LIB
C:\PROGRAM FILES (X86)\MICROSOFT VISUAL STUDIO\2019\COMMUNITY\VC\TOOLS\MSVC\14.29.30133\LIB\X86\COMSUPP.LIB
C:\PROGRAM FILES (X86)\WINDOWS KITS\10\LIB\10.0.22621.0\UM\X86\OLEAUT32.LIB
C:\PROGRAM FILES (X86)\WINDOWS KITS\10\LIB\10.0.22621.0\UM\X86\KERNEL32.LIB
C:\PROGRAM FILES (X86)\WINDOWS KITS\10\LIB\10.0.22621.0\UCRT\X86\UCRTD.LIB
C:\PROGRAM FILES (X86)\MICROSOFT VISUAL STUDIO\2019\COMMUNITY\VC\TOOLS\MSVC\14.29.30133\LIB\X86\VCRUNTIMED.LIB
C:\PROGRAM FILES (X86)\MICROSOFT VISUAL STUDIO\2019\COMMUNITY\VC\TOOLS\MSVC\14.29.30133\BIN\HOSTX86\X86\CVTRES.EXE
C:\PROGRAM FILES (X86)\MICROSOFT VISUAL STUDIO\2019\COMMUNITY\VC\TOOLS\MSVC\14.29.30133\BIN\HOSTX86\X86\MSPDBSRV.EXE
P:\ZZ2\SIMULATION\TP1\CONSOLEAPPLICATION1\DEBUG\CONSOLEAPPLICATION1.FORM_MAIN.RESOURCES
