^P:\ZZ2\Simu\Poste\ConsoleApplication1\ConsoleApplication1.vcxproj
P:\ZZ2\Simu\Poste\ConsoleApplication1\Debug\ConsoleApplication1.form_main.resources
^P:\ZZ2\Simu\Poste\ConsoleApplication1\ConsoleApplication1.vcxproj
P:\ZZ2\Simu\Poste\ConsoleApplication1\Debug\ConsoleApplication1.form_main.resources
^P:\ZZ2\Simu\Poste\ConsoleApplication1\ConsoleApplication1.vcxproj
P:\ZZ2\Simu\Poste\ConsoleApplication1\Debug\ConsoleApplication1.form_main.resources
^P:\ZZ2\Simu\Poste\ConsoleApplication1\ConsoleApplication1.vcxproj
P:\ZZ2\Simu\Poste\ConsoleApplication1\Debug\ConsoleApplication1.form_main.resources
^P:\ZZ2\Simu\Poste\ConsoleApplication1\ConsoleApplication1.vcxproj
P:\ZZ2\Simu\Poste\ConsoleApplication1\Debug\ConsoleApplication1.form_main.resources
^P:\ZZ2\Simu\Poste\ConsoleApplication1\ConsoleApplication1.vcxproj
P:\ZZ2\Simu\Poste\ConsoleApplication1\Debug\ConsoleApplication1.form_main.resources
^P:\ZZ2\Simu\Poste\ConsoleApplication1\ConsoleApplication1.vcxproj
P:\ZZ2\Simu\Poste\ConsoleApplication1\Debug\ConsoleApplication1.form_main.resources
^P:\ZZ2\Simu\Poste\ConsoleApplication1\ConsoleApplication1.vcxproj
P:\ZZ2\Simu\Poste\ConsoleApplication1\Debug\ConsoleApplication1.form_main.resources
^P:\ZZ2\Simu\Poste\ConsoleApplication1\ConsoleApplication1.vcxproj
P:\ZZ2\Simu\Poste\ConsoleApplication1\Debug\ConsoleApplication1.form_main.resources
^P:\ZZ2\Simu\Poste\ConsoleApplication1\ConsoleApplication1.vcxproj
P:\ZZ2\Simu\Poste\ConsoleApplication1\Debug\ConsoleApplication1.form_main.resources
^P:\ZZ2\Simu\Poste\ConsoleApplication1\ConsoleApplication1.vcxproj
P:\ZZ2\Simu\Poste\ConsoleApplication1\Debug\ConsoleApplication1.form_main.resources
^P:\ZZ2\Simu\Poste\ConsoleApplication1\ConsoleApplication1.vcxproj
P:\ZZ2\Simu\Poste\ConsoleApplication1\Debug\ConsoleApplication1.form_main.resources
^P:\ZZ2\Simu\Poste\ConsoleApplication1\ConsoleApplication1.vcxproj
P:\ZZ2\Simu\Poste\ConsoleApplication1\Debug\ConsoleApplication1.form_main.resources
^P:\ZZ2\Simu\Poste\ConsoleApplication1\ConsoleApplication1.vcxproj
P:\ZZ2\Simu\Poste\ConsoleApplication1\Debug\ConsoleApplication1.form_main.resources
^P:\ZZ2\Simu\Poste\ConsoleApplication1\ConsoleApplication1.vcxproj
P:\ZZ2\Simu\Poste\ConsoleApplication1\Debug\ConsoleApplication1.form_main.resources
^P:\ZZ2\Simu\Poste\ConsoleApplication1\ConsoleApplication1.vcxproj
P:\ZZ2\Simu\Poste\ConsoleApplication1\Debug\ConsoleApplication1.form_main.resources
^P:\ZZ2\Simu\Poste\ConsoleApplication1\ConsoleApplication1.vcxproj
P:\ZZ2\Simu\Poste\ConsoleApplication1\Debug\ConsoleApplication1.form_main.resources
^P:\ZZ2\Simu\Poste\ConsoleApplication1\ConsoleApplication1.vcxproj
P:\ZZ2\Simu\Poste\ConsoleApplication1\Debug\ConsoleApplication1.form_main.resources
^P:\ZZ2\Simu\Poste\ConsoleApplication1\ConsoleApplication1.vcxproj
P:\ZZ2\Simu\Poste\ConsoleApplication1\Debug\ConsoleApplication1.form_main.resources
^P:\ZZ2\Simu\Poste\ConsoleApplication1\ConsoleApplication1.vcxproj
P:\ZZ2\Simu\Poste\ConsoleApplication1\Debug\ConsoleApplication1.form_main.resources
^P:\ZZ2\Simu\Poste\ConsoleApplication1\ConsoleApplication1.vcxproj
P:\ZZ2\Simu\Poste\ConsoleApplication1\Debug\ConsoleApplication1.form_main.resources
^P:\ZZ2\Simu\Poste\ConsoleApplication1\ConsoleApplication1.vcxproj
P:\ZZ2\Simu\Poste\ConsoleApplication1\Debug\ConsoleApplication1.form_main.resources
^P:\ZZ2\Simu\Poste\ConsoleApplication1\ConsoleApplication1.vcxproj
P:\ZZ2\Simu\Poste\ConsoleApplication1\Debug\ConsoleApplication1.form_main.resources
^P:\ZZ2\Simu\Poste\ConsoleApplication1\ConsoleApplication1.vcxproj
P:\ZZ2\Simu\Poste\ConsoleApplication1\Debug\ConsoleApplication1.form_main.resources
^C:\Users\cylourenco\Desktop\Poste\ConsoleApplication1\ConsoleApplication1.vcxproj
C:\Users\cylourenco\Desktop\Poste\ConsoleApplication1\Debug\ConsoleApplication1.form_main.resources
^P:\ZZ2\simu\TP2\ConsoleApplication1\ConsoleApplication1.vcxproj
P:\ZZ2\simu\TP2\ConsoleApplication1\Debug\ConsoleApplication1.form_main.resources
^P:\ZZ2\simu\TP2\ConsoleApplication1\ConsoleApplication1.vcxproj
P:\ZZ2\simu\TP2\ConsoleApplication1\Debug\ConsoleApplication1.form_main.resources
^P:\ZZ2\simu\TP2\ConsoleApplication1\ConsoleApplication1.vcxproj
P:\ZZ2\simu\TP2\ConsoleApplication1\Debug\ConsoleApplication1.form_main.resources
^P:\ZZ2\simu\TP2\ConsoleApplication1\ConsoleApplication1.vcxproj
P:\ZZ2\simu\TP2\ConsoleApplication1\Debug\ConsoleApplication1.form_main.resources
^P:\ZZ2\simu\TP2\ConsoleApplication1\ConsoleApplication1.vcxproj
P:\ZZ2\simu\TP2\ConsoleApplication1\Debug\ConsoleApplication1.form_main.resources
^P:\ZZ2\simu\TP2\ConsoleApplication1\ConsoleApplication1.vcxproj
P:\ZZ2\simu\TP2\ConsoleApplication1\Debug\ConsoleApplication1.form_main.resources
^P:\ZZ2\simu\TP2\ConsoleApplication1\ConsoleApplication1.vcxproj
P:\ZZ2\simu\TP2\ConsoleApplication1\Debug\ConsoleApplication1.form_main.resources
^P:\ZZ2\simu\TP2\ConsoleApplication1\ConsoleApplication1.vcxproj
P:\ZZ2\simu\TP2\ConsoleApplication1\Debug\ConsoleApplication1.form_main.resources
^P:\ZZ2\simu\TP2\ConsoleApplication1\ConsoleApplication1.vcxproj
P:\ZZ2\simu\TP2\ConsoleApplication1\Debug\ConsoleApplication1.form_main.resources
^P:\ZZ2\simu\TP2\ConsoleApplication1\ConsoleApplication1.vcxproj
P:\ZZ2\simu\TP2\ConsoleApplication1\Debug\ConsoleApplication1.form_main.resources
^P:\ZZ2\simu\TP2\ConsoleApplication1\ConsoleApplication1.vcxproj
P:\ZZ2\simu\TP2\ConsoleApplication1\Debug\ConsoleApplication1.form_main.resources
^P:\ZZ2\simu\TP2\ConsoleApplication1\ConsoleApplication1.vcxproj
P:\ZZ2\simu\TP2\ConsoleApplication1\Debug\ConsoleApplication1.form_main.resources
^P:\ZZ2\simu\TP2\ConsoleApplication1\ConsoleApplication1.vcxproj
P:\ZZ2\simu\TP2\ConsoleApplication1\Debug\ConsoleApplication1.form_main.resources
^P:\ZZ2\simu\TP2\ConsoleApplication1\ConsoleApplication1.vcxproj
P:\ZZ2\simu\TP2\ConsoleApplication1\Debug\ConsoleApplication1.form_main.resources
^P:\ZZ2\simu\TP2\ConsoleApplication1\ConsoleApplication1.vcxproj
P:\ZZ2\simu\TP2\ConsoleApplication1\Debug\ConsoleApplication1.form_main.resources
^P:\ZZ2\simu\TP2\ConsoleApplication1\ConsoleApplication1.vcxproj
P:\ZZ2\simu\TP2\ConsoleApplication1\Debug\ConsoleApplication1.form_main.resources
^P:\ZZ2\simu\TP2\ConsoleApplication1\ConsoleApplication1.vcxproj
P:\ZZ2\simu\TP2\ConsoleApplication1\Debug\ConsoleApplication1.form_main.resources
^P:\ZZ2\simu\TP2\ConsoleApplication1\ConsoleApplication1.vcxproj
P:\ZZ2\simu\TP2\ConsoleApplication1\Debug\ConsoleApplication1.form_main.resources
^P:\ZZ2\simu\TP2\ConsoleApplication1\ConsoleApplication1.vcxproj
P:\ZZ2\simu\TP2\ConsoleApplication1\Debug\ConsoleApplication1.form_main.resources
^P:\ZZ2\simu\TP2\ConsoleApplication1\ConsoleApplication1.vcxproj
P:\ZZ2\simu\TP2\ConsoleApplication1\Debug\ConsoleApplication1.form_main.resources
^P:\ZZ2\simu\TP2\ConsoleApplication1\ConsoleApplication1.vcxproj
P:\ZZ2\simu\TP2\ConsoleApplication1\Debug\ConsoleApplication1.form_main.resources
^P:\ZZ2\simu\TP2\ConsoleApplication1\ConsoleApplication1.vcxproj
P:\ZZ2\simu\TP2\ConsoleApplication1\Debug\ConsoleApplication1.form_main.resources
^P:\ZZ2\simu\TP2\ConsoleApplication1\ConsoleApplication1.vcxproj
P:\ZZ2\simu\TP2\ConsoleApplication1\Debug\ConsoleApplication1.form_main.resources
^P:\ZZ2\simu\TP2\ConsoleApplication1\ConsoleApplication1.vcxproj
P:\ZZ2\simu\TP2\ConsoleApplication1\Debug\ConsoleApplication1.form_main.resources
^P:\ZZ2\simu\TP2\ConsoleApplication1\ConsoleApplication1.vcxproj
P:\ZZ2\simu\TP2\ConsoleApplication1\Debug\ConsoleApplication1.form_main.resources
^P:\ZZ2\simu\TP2\ConsoleApplication1\ConsoleApplication1.vcxproj
P:\ZZ2\simu\TP2\ConsoleApplication1\Debug\ConsoleApplication1.form_main.resources
^P:\ZZ2\simu\TP2\ConsoleApplication1\ConsoleApplication1.vcxproj
P:\ZZ2\simu\TP2\ConsoleApplication1\Debug\ConsoleApplication1.form_main.resources
^P:\ZZ2\simu\TP2\ConsoleApplication1\ConsoleApplication1.vcxproj
P:\ZZ2\simu\TP2\ConsoleApplication1\Debug\ConsoleApplication1.form_main.resources
^P:\ZZ2\simu\TP2\ConsoleApplication1\ConsoleApplication1.vcxproj
P:\ZZ2\simu\TP2\ConsoleApplication1\Debug\ConsoleApplication1.form_main.resources
^P:\ZZ2\simu\TP2\ConsoleApplication1\ConsoleApplication1.vcxproj
P:\ZZ2\simu\TP2\ConsoleApplication1\Debug\ConsoleApplication1.form_main.resources
^P:\ZZ2\simu\TP2\ConsoleApplication1\ConsoleApplication1.vcxproj
P:\ZZ2\simu\TP2\ConsoleApplication1\Debug\ConsoleApplication1.form_main.resources
^P:\ZZ2\simu\TP2\ConsoleApplication1\ConsoleApplication1.vcxproj
P:\ZZ2\simu\TP2\ConsoleApplication1\Debug\ConsoleApplication1.form_main.resources
^P:\ZZ2\simu\TP2\ConsoleApplication1\ConsoleApplication1.vcxproj
P:\ZZ2\simu\TP2\ConsoleApplication1\Debug\ConsoleApplication1.form_main.resources
^P:\ZZ2\simu\TP2\ConsoleApplication1\ConsoleApplication1.vcxproj
P:\ZZ2\simu\TP2\ConsoleApplication1\Debug\ConsoleApplication1.form_main.resources
^P:\ZZ2\simu\TP2\ConsoleApplication1\ConsoleApplication1.vcxproj
P:\ZZ2\simu\TP2\ConsoleApplication1\Debug\ConsoleApplication1.form_main.resources
^P:\ZZ2\simu\TP2\ConsoleApplication1\ConsoleApplication1.vcxproj
P:\ZZ2\simu\TP2\ConsoleApplication1\Debug\ConsoleApplication1.form_main.resources
^P:\ZZ2\simu\TP2\ConsoleApplication1\ConsoleApplication1.vcxproj
P:\ZZ2\simu\TP2\ConsoleApplication1\Debug\ConsoleApplication1.form_main.resources
^P:\ZZ2\simu\TP2\ConsoleApplication1\ConsoleApplication1.vcxproj
P:\ZZ2\simu\TP2\ConsoleApplication1\Debug\ConsoleApplication1.form_main.resources
^P:\ZZ2\simu\TP2\ConsoleApplication1\ConsoleApplication1.vcxproj
P:\ZZ2\simu\TP2\ConsoleApplication1\Debug\ConsoleApplication1.form_main.resources
^P:\ZZ2\simu\TP2\ConsoleApplication1\ConsoleApplication1.vcxproj
P:\ZZ2\simu\TP2\ConsoleApplication1\Debug\ConsoleApplication1.form_main.resources
^P:\ZZ2\simu\TP2\ConsoleApplication1\ConsoleApplication1.vcxproj
P:\ZZ2\simu\TP2\ConsoleApplication1\Debug\ConsoleApplication1.form_main.resources
^P:\ZZ2\simu\TP2\ConsoleApplication1\ConsoleApplication1.vcxproj
P:\ZZ2\simu\TP2\ConsoleApplication1\Debug\ConsoleApplication1.form_main.resources
^P:\ZZ2\simu\TP2\ConsoleApplication1\ConsoleApplication1.vcxproj
P:\ZZ2\simu\TP2\ConsoleApplication1\Debug\ConsoleApplication1.form_main.resources
^P:\ZZ2\simu\TP2\ConsoleApplication1\ConsoleApplication1.vcxproj
P:\ZZ2\simu\TP2\ConsoleApplication1\Debug\ConsoleApplication1.form_main.resources
^P:\ZZ2\simu\TP2\ConsoleApplication1\ConsoleApplication1.vcxproj
P:\ZZ2\simu\TP2\ConsoleApplication1\Debug\ConsoleApplication1.form_main.resources
^P:\ZZ2\simu\TP2\ConsoleApplication1\ConsoleApplication1.vcxproj
P:\ZZ2\simu\TP2\ConsoleApplication1\Debug\ConsoleApplication1.form_main.resources
^P:\ZZ2\simu\TP2\ConsoleApplication1\ConsoleApplication1.vcxproj
P:\ZZ2\simu\TP2\ConsoleApplication1\Debug\ConsoleApplication1.form_main.resources
^P:\ZZ2\simu\TP2\ConsoleApplication1\ConsoleApplication1.vcxproj
P:\ZZ2\simu\TP2\ConsoleApplication1\Debug\ConsoleApplication1.form_main.resources
^P:\ZZ2\simu\TP2\ConsoleApplication1\ConsoleApplication1.vcxproj
P:\ZZ2\simu\TP2\ConsoleApplication1\Debug\ConsoleApplication1.form_main.resources
^P:\ZZ2\simu\TP2\ConsoleApplication1\ConsoleApplication1.vcxproj
P:\ZZ2\simu\TP2\ConsoleApplication1\Debug\ConsoleApplication1.form_main.resources
^P:\ZZ2\simu\TP2\ConsoleApplication1\ConsoleApplication1.vcxproj
P:\ZZ2\simu\TP2\ConsoleApplication1\Debug\ConsoleApplication1.form_main.resources
^P:\ZZ2\simu\TP2\ConsoleApplication1\ConsoleApplication1.vcxproj
P:\ZZ2\simu\TP2\ConsoleApplication1\Debug\ConsoleApplication1.form_main.resources
^P:\ZZ2\simu\TP2\ConsoleApplication1\ConsoleApplication1.vcxproj
P:\ZZ2\simu\TP2\ConsoleApplication1\Debug\ConsoleApplication1.form_main.resources
^P:\ZZ2\simu\TP2\ConsoleApplication1\ConsoleApplication1.vcxproj
P:\ZZ2\simu\TP2\ConsoleApplication1\Debug\ConsoleApplication1.form_main.resources
^P:\ZZ2\simu\TP2\ConsoleApplication1\ConsoleApplication1.vcxproj
P:\ZZ2\simu\TP2\ConsoleApplication1\Debug\ConsoleApplication1.form_main.resources
^P:\ZZ2\simu\TP2\ConsoleApplication1\ConsoleApplication1.vcxproj
P:\ZZ2\simu\TP2\ConsoleApplication1\Debug\ConsoleApplication1.form_main.resources
^P:\ZZ2\simu\TP2\ConsoleApplication1\ConsoleApplication1.vcxproj
P:\ZZ2\simu\TP2\ConsoleApplication1\Debug\ConsoleApplication1.form_main.resources
^P:\ZZ2\simu\TP2\ConsoleApplication1\ConsoleApplication1.vcxproj
P:\ZZ2\simu\TP2\ConsoleApplication1\Debug\ConsoleApplication1.form_main.resources
^P:\ZZ2\simu\TP2\ConsoleApplication1\ConsoleApplication1.vcxproj
P:\ZZ2\simu\TP2\ConsoleApplication1\Debug\ConsoleApplication1.form_main.resources
^P:\ZZ2\simu\TP2\ConsoleApplication1\ConsoleApplication1.vcxproj
P:\ZZ2\simu\TP2\ConsoleApplication1\Debug\ConsoleApplication1.form_main.resources
^P:\ZZ2\simu\TP2\ConsoleApplication1\ConsoleApplication1.vcxproj
P:\ZZ2\simu\TP2\ConsoleApplication1\Debug\ConsoleApplication1.form_main.resources
^P:\ZZ2\simu\TP2\ConsoleApplication1\ConsoleApplication1.vcxproj
P:\ZZ2\simu\TP2\ConsoleApplication1\Debug\ConsoleApplication1.form_main.resources
^P:\ZZ2\simu\TP2\ConsoleApplication1\ConsoleApplication1.vcxproj
P:\ZZ2\simu\TP2\ConsoleApplication1\Debug\ConsoleApplication1.form_main.resources
^P:\ZZ2\simu\TP2\ConsoleApplication1\ConsoleApplication1.vcxproj
P:\ZZ2\simu\TP2\ConsoleApplication1\Debug\ConsoleApplication1.form_main.resources
^P:\ZZ2\simu\TP2\ConsoleApplication1\ConsoleApplication1.vcxproj
P:\ZZ2\simu\TP2\ConsoleApplication1\Debug\ConsoleApplication1.form_main.resources
^P:\ZZ2\simu\TP2\ConsoleApplication1\ConsoleApplication1.vcxproj
P:\ZZ2\simu\TP2\ConsoleApplication1\Debug\ConsoleApplication1.form_main.resources
^P:\ZZ2\simu\TP2\ConsoleApplication1\ConsoleApplication1.vcxproj
P:\ZZ2\simu\TP2\ConsoleApplication1\Debug\ConsoleApplication1.form_main.resources
^P:\ZZ2\simu\TP2\ConsoleApplication1\ConsoleApplication1.vcxproj
P:\ZZ2\simu\TP2\ConsoleApplication1\Debug\ConsoleApplication1.form_main.resources
^P:\ZZ2\simu\TP2\ConsoleApplication1\ConsoleApplication1.vcxproj
P:\ZZ2\simu\TP2\ConsoleApplication1\Debug\ConsoleApplication1.form_main.resources
^P:\ZZ2\simu\TP2\ConsoleApplication1\ConsoleApplication1.vcxproj
P:\ZZ2\simu\TP2\ConsoleApplication1\Debug\ConsoleApplication1.form_main.resources
^P:\ZZ2\simu\TP2\ConsoleApplication1\ConsoleApplication1.vcxproj
P:\ZZ2\simu\TP2\ConsoleApplication1\Debug\ConsoleApplication1.form_main.resources
^P:\ZZ2\simu\TP2\ConsoleApplication1\ConsoleApplication1.vcxproj
P:\ZZ2\simu\TP2\ConsoleApplication1\Debug\ConsoleApplication1.form_main.resources
^P:\ZZ2\simu\TP2\ConsoleApplication1\ConsoleApplication1.vcxproj
P:\ZZ2\simu\TP2\ConsoleApplication1\Debug\ConsoleApplication1.form_main.resources
^P:\ZZ2\simu\TP2\ConsoleApplication1\ConsoleApplication1.vcxproj
P:\ZZ2\simu\TP2\ConsoleApplication1\Debug\ConsoleApplication1.form_main.resources
^P:\ZZ2\simu\TP2\ConsoleApplication1\ConsoleApplication1.vcxproj
P:\ZZ2\simu\TP2\ConsoleApplication1\Debug\ConsoleApplication1.form_main.resources
^P:\ZZ2\simu\TP2\ConsoleApplication1\ConsoleApplication1.vcxproj
P:\ZZ2\simu\TP2\ConsoleApplication1\Debug\ConsoleApplication1.form_main.resources
^P:\ZZ2\simu\TP2\ConsoleApplication1\ConsoleApplication1.vcxproj
P:\ZZ2\simu\TP2\ConsoleApplication1\Debug\ConsoleApplication1.form_main.resources
^P:\ZZ2\simu\TP2\ConsoleApplication1\ConsoleApplication1.vcxproj
P:\ZZ2\simu\TP2\ConsoleApplication1\Debug\ConsoleApplication1.form_main.resources
^P:\ZZ2\simu\TP2\ConsoleApplication1\ConsoleApplication1.vcxproj
P:\ZZ2\simu\TP2\ConsoleApplication1\Debug\ConsoleApplication1.form_main.resources
^P:\ZZ2\simu\TP2\ConsoleApplication1\ConsoleApplication1.vcxproj
P:\ZZ2\simu\TP2\ConsoleApplication1\Debug\ConsoleApplication1.form_main.resources
^P:\ZZ2\simu\TP2\ConsoleApplication1\ConsoleApplication1.vcxproj
P:\ZZ2\simu\TP2\ConsoleApplication1\Debug\ConsoleApplication1.form_main.resources
^P:\ZZ2\simu\TP2\ConsoleApplication1\ConsoleApplication1.vcxproj
P:\ZZ2\simu\TP2\ConsoleApplication1\Debug\ConsoleApplication1.form_main.resources
^P:\ZZ2\simu\TP2\ConsoleApplication1\ConsoleApplication1.vcxproj
P:\ZZ2\simu\TP2\ConsoleApplication1\Debug\ConsoleApplication1.form_main.resources
^P:\ZZ2\simu\TP2\ConsoleApplication1\ConsoleApplication1.vcxproj
P:\ZZ2\simu\TP2\ConsoleApplication1\Debug\ConsoleApplication1.form_main.resources
^P:\ZZ2\simu\TP2\ConsoleApplication1\ConsoleApplication1.vcxproj
P:\ZZ2\simu\TP2\ConsoleApplication1\Debug\ConsoleApplication1.form_main.resources
^P:\ZZ2\simu\TP2\ConsoleApplication1\ConsoleApplication1.vcxproj
P:\ZZ2\simu\TP2\ConsoleApplication1\Debug\ConsoleApplication1.form_main.resources
^P:\ZZ2\simu\TP2\ConsoleApplication1\ConsoleApplication1.vcxproj
P:\ZZ2\simu\TP2\ConsoleApplication1\Debug\ConsoleApplication1.form_main.resources
^P:\ZZ2\simu\TP2\ConsoleApplication1\ConsoleApplication1.vcxproj
P:\ZZ2\simu\TP2\ConsoleApplication1\Debug\ConsoleApplication1.form_main.resources
^P:\ZZ2\simu\TP2\ConsoleApplication1\ConsoleApplication1.vcxproj
P:\ZZ2\simu\TP2\ConsoleApplication1\Debug\ConsoleApplication1.form_main.resources
^P:\ZZ2\simu\TP2\ConsoleApplication1\ConsoleApplication1.vcxproj
P:\ZZ2\simu\TP2\ConsoleApplication1\Debug\ConsoleApplication1.form_main.resources
^P:\ZZ2\simu\TP2_partie2\ConsoleApplication1\ConsoleApplication1.vcxproj
P:\ZZ2\simu\TP2_partie2\ConsoleApplication1\Debug\ConsoleApplication1.form_main.resources
^P:\ZZ2\simu\TP2_partie2\ConsoleApplication1\ConsoleApplication1.vcxproj
P:\ZZ2\simu\TP2_partie2\ConsoleApplication1\Debug\ConsoleApplication1.form_main.resources
^P:\ZZ2\simu\TP2_partie2\ConsoleApplication1\ConsoleApplication1.vcxproj
P:\ZZ2\simu\TP2_partie2\ConsoleApplication1\Debug\ConsoleApplication1.form_main.resources
^P:\ZZ2\simu\TP2_partie2\ConsoleApplication1\ConsoleApplication1.vcxproj
P:\ZZ2\simu\TP2_partie2\ConsoleApplication1\Debug\ConsoleApplication1.form_main.resources
^P:\ZZ2\simu\TP2_partie2\ConsoleApplication1\ConsoleApplication1.vcxproj
P:\ZZ2\simu\TP2_partie2\ConsoleApplication1\Debug\ConsoleApplication1.form_main.resources
^P:\ZZ2\simu\TP2_partie2\ConsoleApplication1\ConsoleApplication1.vcxproj
P:\ZZ2\simu\TP2_partie2\ConsoleApplication1\Debug\ConsoleApplication1.form_main.resources
^P:\ZZ2\simu\TP2_partie2\ConsoleApplication1\ConsoleApplication1.vcxproj
P:\ZZ2\simu\TP2_partie2\ConsoleApplication1\Debug\ConsoleApplication1.form_main.resources
^P:\ZZ2\simu\TP2_partie2\ConsoleApplication1\ConsoleApplication1.vcxproj
P:\ZZ2\simu\TP2_partie2\ConsoleApplication1\Debug\ConsoleApplication1.form_main.resources
^P:\ZZ2\simu\TP2_partie2\ConsoleApplication1\ConsoleApplication1.vcxproj
P:\ZZ2\simu\TP2_partie2\ConsoleApplication1\Debug\ConsoleApplication1.form_main.resources
^P:\ZZ2\simu\TP2_partie2\ConsoleApplication1\ConsoleApplication1.vcxproj
P:\ZZ2\simu\TP2_partie2\ConsoleApplication1\Debug\ConsoleApplication1.form_main.resources
^P:\ZZ2\simu\TP2_partie2\ConsoleApplication1\ConsoleApplication1.vcxproj
P:\ZZ2\simu\TP2_partie2\ConsoleApplication1\Debug\ConsoleApplication1.form_main.resources
^P:\ZZ2\simu\TP2_partie2\ConsoleApplication1\ConsoleApplication1.vcxproj
P:\ZZ2\simu\TP2_partie2\ConsoleApplication1\Debug\ConsoleApplication1.form_main.resources
^P:\ZZ2\simu\TP2_partie2\ConsoleApplication1\ConsoleApplication1.vcxproj
P:\ZZ2\simu\TP2_partie2\ConsoleApplication1\Debug\ConsoleApplication1.form_main.resources
^P:\ZZ2\simu\TP2_partie2\ConsoleApplication1\ConsoleApplication1.vcxproj
P:\ZZ2\simu\TP2_partie2\ConsoleApplication1\Debug\ConsoleApplication1.form_main.resources
^P:\ZZ2\simu\TP2_partie2\ConsoleApplication1\ConsoleApplication1.vcxproj
P:\ZZ2\simu\TP2_partie2\ConsoleApplication1\Debug\ConsoleApplication1.form_main.resources
^P:\ZZ2\simu\TP2_partie2\ConsoleApplication1\ConsoleApplication1.vcxproj
P:\ZZ2\simu\TP2_partie2\ConsoleApplication1\Debug\ConsoleApplication1.form_main.resources
^P:\ZZ2\simu\TP2_partie2\ConsoleApplication1\ConsoleApplication1.vcxproj
P:\ZZ2\simu\TP2_partie2\ConsoleApplication1\Debug\ConsoleApplication1.form_main.resources
^P:\ZZ2\simu\TP2_partie2\ConsoleApplication1\ConsoleApplication1.vcxproj
P:\ZZ2\simu\TP2_partie2\ConsoleApplication1\Debug\ConsoleApplication1.form_main.resources
^P:\ZZ2\simu\TP2_partie2\ConsoleApplication1\ConsoleApplication1.vcxproj
P:\ZZ2\simu\TP2_partie2\ConsoleApplication1\Debug\ConsoleApplication1.form_main.resources
^P:\ZZ2\simu\TP2_partie2\ConsoleApplication1\ConsoleApplication1.vcxproj
P:\ZZ2\simu\TP2_partie2\ConsoleApplication1\Debug\ConsoleApplication1.form_main.resources
^P:\ZZ2\simu\TP2_partie2\ConsoleApplication1\ConsoleApplication1.vcxproj
P:\ZZ2\simu\TP2_partie2\ConsoleApplication1\Debug\ConsoleApplication1.form_main.resources
^P:\ZZ2\simu\TP2_partie2\ConsoleApplication1\ConsoleApplication1.vcxproj
P:\ZZ2\simu\TP2_partie2\ConsoleApplication1\Debug\ConsoleApplication1.form_main.resources
^P:\ZZ2\simu\TP2_partie2\ConsoleApplication1\ConsoleApplication1.vcxproj
P:\ZZ2\simu\TP2_partie2\ConsoleApplication1\Debug\ConsoleApplication1.form_main.resources
^P:\ZZ2\simu\TP2_partie2\ConsoleApplication1\ConsoleApplication1.vcxproj
P:\ZZ2\simu\TP2_partie2\ConsoleApplication1\Debug\ConsoleApplication1.form_main.resources
^P:\ZZ2\simu\TP2_partie2\ConsoleApplication1\ConsoleApplication1.vcxproj
P:\ZZ2\simu\TP2_partie2\ConsoleApplication1\Debug\ConsoleApplication1.form_main.resources
^P:\ZZ2\simu\TP2_partie2\ConsoleApplication1\ConsoleApplication1.vcxproj
P:\ZZ2\simu\TP2_partie2\ConsoleApplication1\Debug\ConsoleApplication1.form_main.resources
^P:\ZZ2\simu\TP2_partie2\ConsoleApplication1\ConsoleApplication1.vcxproj
P:\ZZ2\simu\TP2_partie2\ConsoleApplication1\Debug\ConsoleApplication1.form_main.resources
^P:\ZZ2\simu\TP2_partie2\ConsoleApplication1\ConsoleApplication1.vcxproj
P:\ZZ2\simu\TP2_partie2\ConsoleApplication1\Debug\ConsoleApplication1.form_main.resources
^P:\ZZ2\simu\TP2_partie2\ConsoleApplication1\ConsoleApplication1.vcxproj
P:\ZZ2\simu\TP2_partie2\ConsoleApplication1\Debug\ConsoleApplication1.form_main.resources
^P:\ZZ2\simu\TP2_partie2\ConsoleApplication1\ConsoleApplication1.vcxproj
P:\ZZ2\simu\TP2_partie2\ConsoleApplication1\Debug\ConsoleApplication1.form_main.resources
^P:\ZZ2\simu\TP2_partie2\ConsoleApplication1\ConsoleApplication1.vcxproj
P:\ZZ2\simu\TP2_partie2\ConsoleApplication1\Debug\ConsoleApplication1.form_main.resources
^P:\ZZ2\simu\TP2_partie2\ConsoleApplication1\ConsoleApplication1.vcxproj
P:\ZZ2\simu\TP2_partie2\ConsoleApplication1\Debug\ConsoleApplication1.form_main.resources
^P:\ZZ2\simu\TP2_partie2\ConsoleApplication1\ConsoleApplication1.vcxproj
P:\ZZ2\simu\TP2_partie2\ConsoleApplication1\Debug\ConsoleApplication1.form_main.resources
^P:\ZZ2\simu\TP2_partie2\ConsoleApplication1\ConsoleApplication1.vcxproj
P:\ZZ2\simu\TP2_partie2\ConsoleApplication1\Debug\ConsoleApplication1.form_main.resources
^P:\ZZ2\simu\TP2_partie2\ConsoleApplication1\ConsoleApplication1.vcxproj
P:\ZZ2\simu\TP2_partie2\ConsoleApplication1\Debug\ConsoleApplication1.form_main.resources
^P:\ZZ2\simu\TP2_partie2\ConsoleApplication1\ConsoleApplication1.vcxproj
P:\ZZ2\simu\TP2_partie2\ConsoleApplication1\Debug\ConsoleApplication1.form_main.resources
^P:\ZZ2\simu\TP2_partie2\ConsoleApplication1\ConsoleApplication1.vcxproj
P:\ZZ2\simu\TP2_partie2\ConsoleApplication1\Debug\ConsoleApplication1.form_main.resources
^P:\ZZ2\simu\TP2_partie2\ConsoleApplication1\ConsoleApplication1.vcxproj
P:\ZZ2\simu\TP2_partie2\ConsoleApplication1\Debug\ConsoleApplication1.form_main.resources
^P:\ZZ2\simu\TP2_partie2\ConsoleApplication1\ConsoleApplication1.vcxproj
P:\ZZ2\simu\TP2_partie2\ConsoleApplication1\Debug\ConsoleApplication1.form_main.resources
^P:\ZZ2\simu\TP2_partie2\ConsoleApplication1\ConsoleApplication1.vcxproj
P:\ZZ2\simu\TP2_partie2\ConsoleApplication1\Debug\ConsoleApplication1.form_main.resources
^P:\ZZ2\simu\TP2_partie2\ConsoleApplication1\ConsoleApplication1.vcxproj
P:\ZZ2\simu\TP2_partie2\ConsoleApplication1\Debug\ConsoleApplication1.form_main.resources
^P:\ZZ2\simu\TP2_partie2\ConsoleApplication1\ConsoleApplication1.vcxproj
P:\ZZ2\simu\TP2_partie2\ConsoleApplication1\Debug\ConsoleApplication1.form_main.resources
^P:\ZZ2\simu\TP2_partie2\ConsoleApplication1\ConsoleApplication1.vcxproj
P:\ZZ2\simu\TP2_partie2\ConsoleApplication1\Debug\ConsoleApplication1.form_main.resources
^P:\ZZ2\simu\TP2_partie2\ConsoleApplication1\ConsoleApplication1.vcxproj
P:\ZZ2\simu\TP2_partie2\ConsoleApplication1\Debug\ConsoleApplication1.form_main.resources
^P:\ZZ2\simu\TP2_partie2\ConsoleApplication1\ConsoleApplication1.vcxproj
P:\ZZ2\simu\TP2_partie2\ConsoleApplication1\Debug\ConsoleApplication1.form_main.resources
^P:\ZZ2\simu\TP2_partie2\ConsoleApplication1\ConsoleApplication1.vcxproj
P:\ZZ2\simu\TP2_partie2\ConsoleApplication1\Debug\ConsoleApplication1.form_main.resources
^P:\ZZ2\simu\TP2_partie2\ConsoleApplication1\ConsoleApplication1.vcxproj
P:\ZZ2\simu\TP2_partie2\ConsoleApplication1\Debug\ConsoleApplication1.form_main.resources
^P:\ZZ2\simu\TP2_partie2\ConsoleApplication1\ConsoleApplication1.vcxproj
P:\ZZ2\simu\TP2_partie2\ConsoleApplication1\Debug\ConsoleApplication1.form_main.resources
^P:\ZZ2\simu\TP2_partie2\ConsoleApplication1\ConsoleApplication1.vcxproj
P:\ZZ2\simu\TP2_partie2\ConsoleApplication1\Debug\ConsoleApplication1.form_main.resources
^P:\ZZ2\simu\TP2_partie2\ConsoleApplication1\ConsoleApplication1.vcxproj
P:\ZZ2\simu\TP2_partie2\ConsoleApplication1\Debug\ConsoleApplication1.form_main.resources
^P:\ZZ2\simu\TP2_partie2\ConsoleApplication1\ConsoleApplication1.vcxproj
P:\ZZ2\simu\TP2_partie2\ConsoleApplication1\Debug\ConsoleApplication1.form_main.resources
^P:\ZZ2\simu\TP2_partie2\ConsoleApplication1\ConsoleApplication1.vcxproj
P:\ZZ2\simu\TP2_partie2\ConsoleApplication1\Debug\ConsoleApplication1.form_main.resources
^P:\ZZ2\simu\TP2_partie2\ConsoleApplication1\ConsoleApplication1.vcxproj
P:\ZZ2\simu\TP2_partie2\ConsoleApplication1\Debug\ConsoleApplication1.form_main.resources
^P:\ZZ2\simu\TP2_partie2\ConsoleApplication1\ConsoleApplication1.vcxproj
P:\ZZ2\simu\TP2_partie2\ConsoleApplication1\Debug\ConsoleApplication1.form_main.resources
^P:\ZZ2\simu\TP2_partie2\ConsoleApplication1\ConsoleApplication1.vcxproj
P:\ZZ2\simu\TP2_partie2\ConsoleApplication1\Debug\ConsoleApplication1.form_main.resources
^P:\ZZ2\simu\TP2_partie2\ConsoleApplication1\ConsoleApplication1.vcxproj
P:\ZZ2\simu\TP2_partie2\ConsoleApplication1\Debug\ConsoleApplication1.form_main.resources
^P:\ZZ2\simu\TP2_partie2\ConsoleApplication1\ConsoleApplication1.vcxproj
P:\ZZ2\simu\TP2_partie2\ConsoleApplication1\Debug\ConsoleApplication1.form_main.resources
^P:\ZZ2\simu\TP2_partie2\ConsoleApplication1\ConsoleApplication1.vcxproj
P:\ZZ2\simu\TP2_partie2\ConsoleApplication1\Debug\ConsoleApplication1.form_main.resources
^P:\ZZ2\simu\TP2_partie2\ConsoleApplication1\ConsoleApplication1.vcxproj
P:\ZZ2\simu\TP2_partie2\ConsoleApplication1\Debug\ConsoleApplication1.form_main.resources
^P:\ZZ2\simu\TP2_partie2\ConsoleApplication1\ConsoleApplication1.vcxproj
P:\ZZ2\simu\TP2_partie2\ConsoleApplication1\Debug\ConsoleApplication1.form_main.resources
^P:\ZZ2\simu\TP2_partie2\ConsoleApplication1\ConsoleApplication1.vcxproj
P:\ZZ2\simu\TP2_partie2\ConsoleApplication1\Debug\ConsoleApplication1.form_main.resources
^P:\ZZ2\simu\TP2_partie2\ConsoleApplication1\ConsoleApplication1.vcxproj
P:\ZZ2\simu\TP2_partie2\ConsoleApplication1\Debug\ConsoleApplication1.form_main.resources
^P:\ZZ2\simu\TP2_partie2\ConsoleApplication1\ConsoleApplication1.vcxproj
P:\ZZ2\simu\TP2_partie2\ConsoleApplication1\Debug\ConsoleApplication1.form_main.resources
^P:\ZZ2\simu\TP2_partie2\ConsoleApplication1\ConsoleApplication1.vcxproj
P:\ZZ2\simu\TP2_partie2\ConsoleApplication1\Debug\ConsoleApplication1.form_main.resources
^P:\ZZ2\simu\TP2_partie2\ConsoleApplication1\ConsoleApplication1.vcxproj
P:\ZZ2\simu\TP2_partie2\ConsoleApplication1\Debug\ConsoleApplication1.form_main.resources
^P:\ZZ2\simu\TP2_partie2\ConsoleApplication1\ConsoleApplication1.vcxproj
P:\ZZ2\simu\TP2_partie2\ConsoleApplication1\Debug\ConsoleApplication1.form_main.resources
